{
    "previous_days_method": "PreviousDays",
    "neighbors_method": "Neighbors",
    "max_window": 10,
    "min_window": 2,
    "IF_YOU_CHANGE_A_SETTING_OF_THE_ONES_BELOW_HERE": "You have to change it on the front-end as well",
    "time_period_column_title": "Time Period",
    "day_column_title": "Day",
    "day_of_week_column_title": "Day of Week",
    "month_column_title": "Month",
    "year_column_title": "Year",
    "is_filtered_column_title": "Is Filtered",
    "is_filtered": "Filtered",
    "is_not_filtered": "Unfiltered",
    "THE LIST BELOW MUST BE IN REVERSE VALUE": "FOR THE DATA TO GO IN THE RIGHT ORDER TO THE BASELINE CALCULATION SERVICE",
    "previous_indexes_for_adjustment": [3,2]
}
